<?xml version="1.0" encoding="UTF-8"?>
<session version="1.0">
<refactoring comment="Rename package &apos;controller&apos; to &apos;com.example.demo.controller&apos;&#x0A;- Original project: &apos;demomongodb&apos;&#x0A;- Original element: &apos;demomongodb/src/main/java/controller&apos;&#x0A;- Renamed element: &apos;demomongodb/src/main/java/com.example.demo.controller&apos;&#x0A;- Update references to refactored element&#x0A;- Update textual occurrences in comments and strings" description="Rename package &apos;controller&apos;" flags="589830" hierarchical="false" id="org.eclipse.jdt.ui.rename.package" input="/src\/main\/java=/optional=/true=/=/maven.pomderived=/true=/&lt;controller" name="com.example.demo.controller" qualified="false" references="true" stamp="1623809796809" textual="false" version="1.0"/>
</session>