<?xml version="1.0" encoding="UTF-8"?>
<session version="1.0">
<refactoring comment="Delete resource &apos;ConsumerService&apos;" deleteContents="true" description="Delete resource &apos;ConsumerService&apos;" element1="/ConsumerService" flags="7" id="org.eclipse.ltk.core.refactoring.delete.resources" resources="1" stamp="1623983088548"/>
</session>